7
7
0000000
0100110
0110100
0000000
0010110
0110010
0000000
PLA 3 4
PLA 2 3
PLA 3 2
PLA 4 3
PLA 3 6
PLA 6 3
PLA 3 0
PLA 0 3
PLA 0 6
PLA 6 6
PLA 6 0
PLA 0 0
BLO 3 3
BLO 1 3
BLO 3 1
BLO 5 3
BLO 3 5
BLO 2 6
BLO 6 4
BLO 4 0
BLO 0 2
EMP 1 3
EMP 2 3
EMP 3 3
EMP 4 3
EMP 5 3
EMP 3 5
EMP 3 4
EMP 3 2
EMP 3 6
EMP 6 3
EMP 3 0
EMP 0 3
EMP 3 1
